Accelerating tidy list-column workflows with collateral • collateral
…
library(tidyverse)
#> -- Attaching packages ------------------------------------------------------------- tidyverse 1.2.1 --
#> v ggplot2 3.0.0     v purrr   0.2.5
#> v tibble  1.4.2     v dplyr   0.7.6
#> v tidyr   0.8.1     v stringr 1.3.1
#> v readr   1.1.1     v forcats 0.3.0
#> Warning: package 'ggplot2' was built under R version 3.5.1
#> Warning: package 'dplyr' was built under R version 3.5.1
#> -- Conflicts ---------------------------------------------------------------- tidyverse_conflicts() --
#> x dplyr::filter() masks stats::filter()
#> x dplyr::lag()    masks stats::lag()

diamonds
#> # A tibble: 53,940 x 10
#>    carat cut       color clarity depth table price     x     y     z
#>    <dbl> <ord>     <ord> <ord>   <dbl> <dbl> <int> <dbl> <dbl> <dbl>
#>  1 0.23  Ideal     E     SI2      61.5    55   326  3.95  3.98  2.43
#>  2 0.21  Premium   E     SI1      59.8    61   326  3.89  3.84  2.31
#>  3 0.23  Good      E     VS1      56.9    65   327  4.05  4.07  2.31
#>  4 0.290 Premium   I     VS2      62.4    58   334  4.2   4.23  2.63
#>  5 0.31  Good      J     SI2      63.3    58   335  4.34  4.35  2.75
#>  6 0.24  Very Good J     VVS2     62.8    57   336  3.94  3.96  2.48
#>  7 0.24  Very Good I     VVS1     62.3    57   336  3.95  3.98  2.47
#>  8 0.26  Very Good H     SI1      61.9    55   337  4.07  4.11  2.53
#>  9 0.22  Fair      E     VS2      65.1    61   337  3.87  3.78  2.49
#> 10 0.23  Very Good H     VS1      59.4    61   338  4     4.05  2.39
#> # ... with 53,930 more rows
…
Grouping the traditional way

It looks like there might be several relationships here, but let’s focus on cut and color for now. ggplot2 makes it very easy to visualise differences across a couple of grouping variables, but we may not always want to create a facetted plot—in fact, there may be lots of activities we want to do that don’t involve plotting at all.

This is a broad class of problem in data analysis called ‘split-apply-combine’: split data up into groups, apply operations to those groups and combine the results. One way of doing this with base R is to use split(), which takes in a data frame and some grouping variables and gives you back a list of identically-structured data frames broken up row-wise ccording to the values of the grouping variables.

diamonds %>% split(diamonds$cut)
#> $Fair
#> # A tibble: 1,610 x 10
#>    carat cut   color clarity depth table price     x     y     z
#>    <dbl> <ord> <ord> <ord>   <dbl> <dbl> <int> <dbl> <dbl> <dbl>
#>  1  0.22 Fair  E     VS2      65.1    61   337  3.87  3.78  2.49
#>  2  0.86 Fair  E     SI2      55.1    69  2757  6.45  6.33  3.52
#>  3  0.96 Fair  F     SI2      66.3    62  2759  6.27  5.95  4.07
#>  4  0.7  Fair  F     VS2      64.5    57  2762  5.57  5.53  3.58
#>  5  0.7  Fair  F     VS2      65.3    55  2762  5.63  5.58  3.66
#>  6  0.91 Fair  H     SI2      64.4    57  2763  6.11  6.09  3.93
#>  7  0.91 Fair  H     SI2      65.7    60  2763  6.03  5.99  3.95
#>  8  0.98 Fair  H     SI2      67.9    60  2777  6.05  5.97  4.08
#>  9  0.84 Fair  G     SI1      55.1    67  2782  6.39  6.2   3.47
#> 10  1.01 Fair  E     I1       64.5    58  2788  6.29  6.21  4.03
#> # ... with 1,600 more rows
#> 
#> $Good
#> # A tibble: 4,906 x 10
#>    carat cut   color clarity depth table price     x     y     z
#>    <dbl> <ord> <ord> <ord>   <dbl> <dbl> <int> <dbl> <dbl> <dbl>
#>  1  0.23 Good  E     VS1      56.9    65   327  4.05  4.07  2.31
#>  2  0.31 Good  J     SI2      63.3    58   335  4.34  4.35  2.75
#>  3  0.3  Good  J     SI1      64      55   339  4.25  4.28  2.73
#>  4  0.3  Good  J     SI1      63.4    54   351  4.23  4.29  2.7 
#>  5  0.3  Good  J     SI1      63.8    56   351  4.23  4.26  2.71
#>  6  0.3  Good  I     SI2      63.3    56   351  4.26  4.3   2.71
#>  7  0.23 Good  F     VS1      58.2    59   402  4.06  4.08  2.37
#>  8  0.23 Good  E     VS1      64.1    59   402  3.83  3.85  2.46
#>  9  0.31 Good  H     SI1      64      54   402  4.29  4.31  2.75
#> 10  0.26 Good  D     VS2      65.2    56   403  3.99  4.02  2.61
#> # ... with 4,896 more rows
#> 
#> $`Very Good`
#> # A tibble: 12,082 x 10
#>    carat cut       color clarity depth table price     x     y     z
#>    <dbl> <ord>     <ord> <ord>   <dbl> <dbl> <int> <dbl> <dbl> <dbl>
#>  1  0.24 Very Good J     VVS2     62.8    57   336  3.94  3.96  2.48
#>  2  0.24 Very Good I     VVS1     62.3    57   336  3.95  3.98  2.47
#>  3  0.26 Very Good H     SI1      61.9    55   337  4.07  4.11  2.53
#>  4  0.23 Very Good H     VS1      59.4    61   338  4     4.05  2.39
#>  5  0.3  Very Good J     SI1      62.7    59   351  4.21  4.27  2.66
#>  6  0.23 Very Good E     VS2      63.8    55   352  3.85  3.92  2.48
#>  7  0.23 Very Good H     VS1      61      57   353  3.94  3.96  2.41
#>  8  0.31 Very Good J     SI1      59.4    62   353  4.39  4.43  2.62
#>  9  0.31 Very Good J     SI1      58.1    62   353  4.44  4.47  2.59
#> 10  0.23 Very Good G     VVS2     60.4    58   354  3.97  4.01  2.41
#> # ... with 12,072 more rows
#> 
#> $Premium
#> # A tibble: 13,791 x 10
#>    carat cut     color clarity depth table price     x     y     z
#>    <dbl> <ord>   <ord> <ord>   <dbl> <dbl> <int> <dbl> <dbl> <dbl>
#>  1 0.21  Premium E     SI1      59.8    61   326  3.89  3.84  2.31
#>  2 0.290 Premium I     VS2      62.4    58   334  4.2   4.23  2.63
#>  3 0.22  Premium F     SI1      60.4    61   342  3.88  3.84  2.33
#>  4 0.2   Premium E     SI2      60.2    62   345  3.79  3.75  2.27
#>  5 0.32  Premium E     I1       60.9    58   345  4.38  4.42  2.68
#>  6 0.24  Premium I     VS1      62.5    57   355  3.97  3.94  2.47
#>  7 0.290 Premium F     SI1      62.4    58   403  4.24  4.26  2.65
#>  8 0.22  Premium E     VS2      61.6    58   404  3.93  3.89  2.41
#>  9 0.22  Premium D     VS2      59.3    62   404  3.91  3.88  2.31
#> 10 0.3   Premium J     SI2      59.3    61   405  4.43  4.38  2.61
#> # ... with 13,781 more rows
#> 
#> $Ideal
#> # A tibble: 21,551 x 10
#>    carat cut   color clarity depth table price     x     y     z
#>    <dbl> <ord> <ord> <ord>   <dbl> <dbl> <int> <dbl> <dbl> <dbl>
#>  1  0.23 Ideal E     SI2      61.5    55   326  3.95  3.98  2.43
#>  2  0.23 Ideal J     VS1      62.8    56   340  3.93  3.9   2.46
#>  3  0.31 Ideal J     SI2      62.2    54   344  4.35  4.37  2.71
#>  4  0.3  Ideal I     SI2      62      54   348  4.31  4.34  2.68
#>  5  0.33 Ideal I     SI2      61.8    55   403  4.49  4.51  2.78
#>  6  0.33 Ideal I     SI2      61.2    56   403  4.49  4.5   2.75
#>  7  0.33 Ideal J     SI1      61.1    56   403  4.49  4.55  2.76
#>  8  0.23 Ideal G     VS1      61.9    54   404  3.93  3.95  2.44
#>  9  0.32 Ideal I     SI1      60.9    55   404  4.45  4.48  2.72
#> 10  0.3  Ideal I     SI2      61      59   405  4.3   4.33  2.63
#> # ... with 21,541 more rows
…
Yuck. Nested data frames, which are supported by tibbles, make this much easier to handle:

nested_diamonds =
  diamonds %>%
  select(cut, color, clarity, depth, price) %>%
  nest(-cut, -color)

nested_diamonds
#> # A tibble: 35 x 3
#>    cut       color data                
#>    <ord>     <ord> <list>              
#>  1 Ideal     E     <tibble [3,903 x 3]>
#>  2 Premium   E     <tibble [2,337 x 3]>
#>  3 Good      E     <tibble [933 x 3]>  
#>  4 Premium   I     <tibble [1,428 x 3]>
#>  5 Good      J     <tibble [307 x 3]>  
#>  6 Very Good J     <tibble [678 x 3]>  
#>  7 Very Good I     <tibble [1,204 x 3]>
#>  8 Very Good H     <tibble [1,824 x 3]>
#>  9 Fair      E     <tibble [224 x 3]>  
#> 10 Ideal     J     <tibble [896 x 3]>  
#> # ... with 25 more rows

What are we looking at here? We still have our grouping variables as columns, but each unique combination only takes up one row—and we have another, data, that says it’s a tibble. The column isn’t a vector but a list, and if we look at the elements in it we can see the other columns:

nested_diamonds$data[[1]]
#> # A tibble: 3,903 x 3
#>    clarity depth price
#>    <ord>   <dbl> <int>
#>  1 SI2      61.5   326
#>  2 VVS2     62.9   554
#>  3 SI1      62.5  2757
#>  4 VVS2     62    2761
#>  5 SI2      62.2  2761
#>  6 VS2      60.7  2762
#>  7 SI1      62.3  2762
#>  8 SI1      60.9  2768
#>  9 VS1      61.7  2774
#> 10 SI1      62.7  2774
#> # ... with 3,893 more rows

nested_diamonds$data[[2]]
#> # A tibble: 2,337 x 3
#>    clarity depth price
#>    <ord>   <dbl> <int>
#>  1 SI1      59.8   326
#>  2 SI2      60.2   345
#>  3 I1       60.9   345
#>  4 VS2      61.6   404
#>  5 VVS1     60.7   553
#>  6 SI1      59.9  2760
#>  7 VVS1     60.9  2765
#>  8 VS2      62.7  2776
#>  9 VS2      61.1  2777
#> 10 SI1      60    2777
#> # ... with 2,327 more rows

Not only do we have our group identifiers associated with each data frame now, but we can create other outputs and keep them associated with the groups too:

nested_diamonds %>%
  mutate(
    mean_price = map_dbl(data, ~ mean(.$price)),
    pd_cor =     map_dbl(data, ~ cor(.$price, .$depth)))
#> # A tibble: 35 x 5
#>    cut       color data                 mean_price   pd_cor
#>    <ord>     <ord> <list>                    <dbl>    <dbl>
#>  1 Ideal     E     <tibble [3,903 x 3]>      2598. -0.00174
#>  2 Premium   E     <tibble [2,337 x 3]>      3539. -0.0117 
#>  3 Good      E     <tibble [933 x 3]>        3424.  0.00758
#>  4 Premium   I     <tibble [1,428 x 3]>      5946. -0.0837 
#>  5 Good      J     <tibble [307 x 3]>        4574. -0.0709 
#>  6 Very Good J     <tibble [678 x 3]>        5104. -0.0789 
#>  7 Very Good I     <tibble [1,204 x 3]>      5256. -0.103  
#>  8 Very Good H     <tibble [1,824 x 3]>      4535. -0.00783
#>  9 Fair      E     <tibble [224 x 3]>        3682.  0.0251 
#> 10 Ideal     J     <tibble [896 x 3]>        4918.  0.0348 
#> # ... with 25 more rows

We can even do complex things like build regression models on the groups:

diamonds_models =
  nested_diamonds %>%
  mutate(
    price_mod = map(data, ~ lm(.$price ~ .$depth)),
    price_summary = map(price_mod, summary),
    price_rsq = map_dbl(price_summary, 'r.squared'))

diamonds_models
#> # A tibble: 35 x 6
#>    cut       color data                price_mod price_summary   price_rsq
#>    <ord>     <ord> <list>              <list>    <list>              <dbl>
#>  1 Ideal     E     <tibble [3,903 x 3~ <S3: lm>  <S3: summary.l~   3.04e-6
#>  2 Premium   E     <tibble [2,337 x 3~ <S3: lm>  <S3: summary.l~   1.36e-4
#>  3 Good      E     <tibble [933 x 3]>  <S3: lm>  <S3: summary.l~   5.74e-5
#>  4 Premium   I     <tibble [1,428 x 3~ <S3: lm>  <S3: summary.l~   7.00e-3
#>  5 Good      J     <tibble [307 x 3]>  <S3: lm>  <S3: summary.l~   5.03e-3
#>  6 Very Good J     <tibble [678 x 3]>  <S3: lm>  <S3: summary.l~   6.23e-3
#>  7 Very Good I     <tibble [1,204 x 3~ <S3: lm>  <S3: summary.l~   1.07e-2
#>  8 Very Good H     <tibble [1,824 x 3~ <S3: lm>  <S3: summary.l~   6.13e-5
#>  9 Fair      E     <tibble [224 x 3]>  <S3: lm>  <S3: summary.l~   6.29e-4
#> 10 Ideal     J     <tibble [896 x 3]>  <S3: lm>  <S3: summary.l~   1.21e-3
#> # ... with 25 more rows
…
We can see that there’s a problem here, but we have no idea which group is causing it without inspecting them (at least, we wouldn’t if we hadn’t just set this up!).

purrr tries to tackle this with two functions: safely() and quietly(). The former catches errors; the latter catches warnings, messages and other output. You use it like this:

safe_lm = safely(lm)
safe_summary = safely(summary)

purrr_models =
  nested_diamonds %>%
  mutate(price_mod = map(data, ~ safe_lm(.$price ~ .$depth)))

purrr_models
#> # A tibble: 35 x 4
#>    cut       color data                 price_mod 
#>    <ord>     <ord> <list>               <list>    
#>  1 Ideal     E     <tibble [3,903 x 3]> <list [2]>
#>  2 Premium   E     <tibble [2,337 x 3]> <list [2]>
#>  3 Good      E     <tibble [933 x 3]>   <list [2]>
#>  4 Premium   I     <tibble [1,428 x 3]> <list [2]>
#>  5 Good      J     <tibble [307 x 3]>   <list [2]>
#>  6 Very Good J     <tibble [678 x 3]>   <list [2]>
#>  7 Very Good I     <tibble [1,204 x 3]> <list [2]>
#>  8 Very Good H     <tibble [1,824 x 3]> <list [2]>
#>  9 Fair      E     <tibble [224 x 3]>   <list [2]>
#> 10 Ideal     J     <tibble [896 x 3]>   <list [2]>
#> # ... with 25 more rows
…
purrr_models %>% mutate(mod_result = map(price_mod, 'result'))
#> # A tibble: 35 x 5
#>    cut       color data                 price_mod  mod_result
#>    <ord>     <ord> <list>               <list>     <list>    
#>  1 Ideal     E     <tibble [3,903 x 3]> <list [2]> <S3: lm>  
#>  2 Premium   E     <tibble [2,337 x 3]> <list [2]> <S3: lm>  
#>  3 Good      E     <tibble [933 x 3]>   <list [2]> <S3: lm>  
#>  4 Premium   I     <tibble [1,428 x 3]> <list [2]> <S3: lm>  
#>  5 Good      J     <tibble [307 x 3]>   <list [2]> <S3: lm>  
#>  6 Very Good J     <tibble [678 x 3]>   <list [2]> <S3: lm>  
#>  7 Very Good I     <tibble [1,204 x 3]> <list [2]> <S3: lm>  
#>  8 Very Good H     <tibble [1,824 x 3]> <list [2]> <S3: lm>  
#>  9 Fair      E     <tibble [224 x 3]>   <list [2]> <S3: lm>  
#> 10 Ideal     J     <tibble [896 x 3]>   <list [2]> <S3: lm>  
#> # ... with 25 more rows
…
Collateral: capture, identify and isolate side effects

The idea of collateral is to both make these functions easier to use and to make them more powerful. Instead of wrapping our functions ourselves, we use map() variants:

library(collateral)

nested_diamonds$data[[5]] = nested_diamonds$data[[5]] %>% filter(price < 300)

collat_models =
  nested_diamonds %>%
  mutate(price_mod = map_safely(data, ~ lm(.$price ~ .$depth)))

print(collat_models)
#> # A tibble: 35 x 4
#>    cut       color data                 price_mod
#>    <ord>     <ord> <list>               <collat> 
#>  1 Ideal     E     <tibble [3,903 x 3]> R _      
#>  2 Premium   E     <tibble [2,337 x 3]> R _      
#>  3 Good      E     <tibble [933 x 3]>   R _      
#>  4 Premium   I     <tibble [1,428 x 3]> R _      
#>  5 Good      J     <tibble [0 x 3]>     _ E      
#>  6 Very Good J     <tibble [678 x 3]>   R _      
#>  7 Very Good I     <tibble [1,204 x 3]> R _      
#>  8 Very Good H     <tibble [1,824 x 3]> R _      
#>  9 Fair      E     <tibble [224 x 3]>   R _      
#> 10 Ideal     J     <tibble [896 x 3]>   R _      
#> # ... with 25 more rows
…
